%bs.raw(`require("./VerifyCertificate__Root.css")`)

@bs.module external graduateIcon: string = "./images/growthtribe-graduate-icon.svg"

let str = React.string
let t = I18n.t(~scope="components.VerifyCertificate__Root")

type viewMode =
  | Screen
  | Print

let printCertificate = (setViewMode, _event) => {
  setViewMode(_ => Print)
  Js.Global.setTimeout(() => {
    open Webapi.Dom
    window |> Window.print
  }, 1000) |> ignore
}

let heading = (currentUser, issuedCertificate) =>
  if currentUser {
    <span
      dangerouslySetInnerHTML={DOMPurify.sanitizedHTML(
        t(~variables=[("name", IssuedCertificate.profileName(issuedCertificate))], "heading"),
      )}
    />
  } else {
    IssuedCertificate.serialNumber(issuedCertificate)->str
  }

let handleCancelPrint = (setViewMode, _event) => setViewMode(_ => Screen)

let issuedToName = issuedCertificate => {
  let issuedTo = IssuedCertificate.issuedTo(issuedCertificate)
  let profileName = IssuedCertificate.profileName(issuedCertificate)

  if issuedTo == profileName {
    profileName
  } else {
    "<a href=\"#name-change-notice\" className=\"text-blue-500 hover:text-blue-600\">" ++
    profileName ++ "<i className=\"ml-1 fas fa-exclamation-circle\" /></a>"
  }
}

let linkedInAddToProfileUrl = (issuedCertificate) => {
  switch issuedCertificate
    |> IssuedCertificate.addToLinkedinProfileUrl {
    | Some(url) => url |> Js.Global.encodeURI
    | _ => ""
  }
}

@react.component
let make = (~issuedCertificate, ~verifyImageUrl, ~currentUser) => {
  let (viewMode, setViewMode) = React.useState(() => Screen)

  switch viewMode {
  | Screen =>
    <div className="container mx-auto px-3 max-w-5xl py-8">
      <div
        className="border border-gray-300 rounded-lg shadow-lg bg-white p-3 md:p-6 flex flex-col md:flex-row items-start md:items-center">
        <div className="text-center md:w-5/12 pr-0 md:pr-5">
          <img src=graduateIcon className="w-18 md:w-24 mx-auto" />
          <h3 className="font-semibold mt-1 md:mt-2">
            {heading(currentUser, issuedCertificate)}
          </h3>
          <div
            className="text-sm mt-4"
            dangerouslySetInnerHTML={DOMPurify.sanitizedHTML(
              t(
                ~variables=[
                  ("name", issuedToName(issuedCertificate)),
                  (
                    "issue_date",
                    issuedCertificate
                    ->IssuedCertificate.issuedAt
                    ->DateFns.formatPreset(~short=true, ~year=true, ()),
                  ),
                  ("course_name", IssuedCertificate.courseName(issuedCertificate)),
                ],
                "description",
              ),
            )}
          />
          {ReactUtils.nullUnless(
            <div className="mt-4 text-xs">
              <code>
                {t(
                  ~variables=[("serial", IssuedCertificate.serialNumber(issuedCertificate))],
                  "serial_number",
                )->str}
              </code>
            </div>,
            currentUser,
          )}
          <div className="mt-4">
            <button onClick={printCertificate(setViewMode)} className="btn btn-primary w-3/4">
              <i className="fas fa-print" />
              <span className="ml-2"> {t("print_or_save")->str} </span>
            </button>
          </div>
          {currentUser
            ? <div className="mt-4">
                <a href={linkedInAddToProfileUrl(issuedCertificate)} target="_blank" className="btn btn-primary w-3/4">
                  <i className="fab fa-linkedin"></i>
                  <span className="ml-2"> {"Add to Your profile" |> str} </span>
                </a>
              </div>
            : React.null}
        </div>
        <div
          className="md:w-7/12 mt-6 md:mt-0 rounded-lg overflow-hidden border-8 border-white shadow-lg">
          <IssuedCertificate__Root issuedCertificate verifyImageUrl />
        </div>
      </div>
      {ReactUtils.nullIf(
        <div
          id="name-change-notice"
          className="border border-blue-200 rounded-lg shadow-lg bg-blue-100 p-3 md:p-6 mt-6 flex items-center">
          <div> <i className="fas fa-exclamation-circle text-2xl text-blue-500" /> </div>
          <div
            className="ml-4 text-sm"
            dangerouslySetInnerHTML={DOMPurify.sanitizedHTML(
              t(
                ~variables=[("name", IssuedCertificate.issuedTo(issuedCertificate))],
                "originally_issued_to",
              ),
            )}
          />
        </div>,
        IssuedCertificate.profileName(issuedCertificate) ==
          IssuedCertificate.issuedTo(issuedCertificate),
      )}
    </div>
  | Print =>
    <div className="flex flex-col items-center">
      <button
        onClick={handleCancelPrint(setViewMode)}
        className="btn btn-secondary my-4 md:my-6 verify-certificate__cancel-button">
        <i className="fas fa-undo-alt" /> <span className="ml-1"> {t("cancel")->str} </span>
      </button>
      <IssuedCertificate__Root issuedCertificate verifyImageUrl />
    </div>
  }
}


